<?xml version="1.0" encoding="utf-8"?>
<!-- Generator: Adobe Illustrator 16.0.0, SVG Export Plug-In . SVG Version: 6.00 Build 0)  -->
<!DOCTYPE svg PUBLIC "-//W3C//DTD SVG 1.1//EN" "http://www.w3.org/Graphics/SVG/1.1/DTD/svg11.dtd">
<svg version="1.1" id="Layer_1" xmlns="http://www.w3.org/2000/svg" xmlns:xlink="http://www.w3.org/1999/xlink" x="0px" y="0px"
	 width="447.573px" height="235.395px" viewBox="0 0 447.573 235.395" enable-background="new 0 0 447.573 235.395"
	 xml:space="preserve">
<g>
	<path fill-rule="evenodd" clip-rule="evenodd" d="M160.623,160.264c0,0.879,0,1.508,0,2.137c0,12.273,0.009,24.545-0.005,36.817
		c-0.005,4.513-1.918,7.292-5.83,8.422c-0.9,0.26-1.884,0.313-2.83,0.314c-42.449,0.015-84.897,0.015-127.346,0.01
		c-5.422-0.001-8.615-3.166-8.625-8.617c-0.023-12.272-0.005-24.544-0.005-36.817c0-0.679,0-1.358,0-2.27
		c-1.595,0-3.015,0.031-4.434-0.005c-5.676-0.148-9.771-3.16-11.119-8.26c-0.294-1.114-0.402-2.308-0.404-3.465
		C0,129.563-0.014,110.597,0.019,91.631c0.01-5.659,2.86-9.75,7.836-11.263c1.345-0.409,2.821-0.429,4.245-0.526
		c1.205-0.082,2.421-0.017,3.88-0.017c0-0.818,0-1.485,0-2.152c0-20.188-0.004-40.377,0.006-60.565
		c0.002-4.505,1.935-7.298,5.842-8.412c0.852-0.243,1.78-0.306,2.673-0.306c30.974-0.015,61.947,0.015,92.92-0.057
		c2.966-0.007,4.322,2,5.894,3.781c8.18,9.266,16.3,18.585,24.439,27.887c3.597,4.112,7.137,8.276,10.812,12.317
		c1.5,1.65,2.104,3.431,2.082,5.621c-0.066,6.587-0.024,13.175-0.024,19.763c0,0.627,0,1.254,0,2.123
		c1.457,0,2.763-0.009,4.069,0.001c7.26,0.054,11.877,4.588,11.891,11.835c0.035,18.914,0.033,37.827,0.001,56.74
		c-0.013,7.268-4.572,11.765-11.876,11.86C163.396,160.279,162.085,160.264,160.623,160.264z M23.738,79.703
		c43.138,0,86.094,0,129.14,0c0.029-0.639,0.073-1.159,0.073-1.679c0.005-5.367-0.047-10.734,0.034-16.099
		c0.022-1.45-0.366-1.901-1.854-1.893c-10.52,0.061-21.041,0.035-31.562,0.03c-3.885-0.001-5.141-1.264-5.142-5.176
		c-0.004-12.274-0.002-24.548-0.002-36.822c0-0.571,0-1.142,0-1.797c-30.308,0-60.453,0-90.688,0
		C23.738,37.453,23.738,58.519,23.738,79.703z M23.649,160.371c0,0.688,0,1.16,0,1.634c0,11.423,0.03,22.845-0.038,34.267
		c-0.009,1.528,0.491,1.848,1.9,1.847c41.864-0.031,83.729-0.031,125.592,0.002c1.435,0.001,1.894-0.363,1.885-1.864
		c-0.064-11.422-0.034-22.845-0.039-34.267c0-0.511-0.058-1.022-0.093-1.618C109.772,160.371,66.821,160.371,23.649,160.371z
		 M10.979,142.164c0.428,0.132,0.619,0.242,0.811,0.243c3.4,0.018,6.802,0.057,10.201-0.014c0.428-0.009,1.038-0.513,1.237-0.939
		c1.886-4.035,3.704-8.103,5.537-12.163c0.507-1.123,0.998-2.253,1.573-3.554c2.654,5.35,5.193,10.428,7.686,15.527
		c0.437,0.893,1.014,1.205,1.994,1.188c3.028-0.055,6.058-0.013,9.086-0.025c0.442-0.001,0.883-0.093,1.48-0.161
		c-0.213-0.481-0.311-0.771-0.461-1.031c-4.066-7.026-8.132-14.053-12.214-21.07c-0.5-0.858-0.843-1.613-0.242-2.632
		c3.207-5.439,6.36-10.911,9.522-16.377c0.938-1.621,1.846-3.259,2.889-5.104c-3.977,0-7.586-0.031-11.194,0.042
		c-0.421,0.008-1.026,0.501-1.215,0.919c-1.903,4.206-3.731,8.444-5.595,12.667c-0.32,0.726-0.711,1.42-1.154,2.296
		c-2.161-4.61-4.269-8.896-6.175-13.269c-0.855-1.963-1.877-3.01-4.203-2.713c-1.986,0.254-4.032,0.052-6.051,0.051
		c-0.975,0-1.949,0-3.108,0c0.249,0.573,0.346,0.87,0.498,1.137c3.772,6.644,7.522,13.3,11.352,19.911
		c0.751,1.297,0.781,2.301-0.001,3.624c-3.375,5.709-6.635,11.485-9.928,17.243C12.528,139.317,11.79,140.697,10.979,142.164z
		 M164.874,142.313c-0.2-0.495-0.281-0.796-0.432-1.056c-4.146-7.16-8.316-14.308-12.42-21.492c-0.298-0.521-0.404-1.462-0.135-1.95
		c2.231-4.037,4.574-8.012,6.879-12.008c1.817-3.152,3.628-6.307,5.607-9.747c-4.04,0-7.733-0.022-11.424,0.036
		c-0.346,0.005-0.839,0.44-1.003,0.796c-1.401,3.031-2.754,6.084-4.098,9.141c-0.838,1.906-1.637,3.83-2.603,6.096
		c-0.408-0.854-0.632-1.317-0.85-1.783c-2.042-4.373-4.069-8.754-6.146-13.11c-0.222-0.464-0.73-1.117-1.118-1.126
		c-3.749-0.085-7.5-0.051-11.526-0.051c0.372,0.685,0.609,1.136,0.859,1.58c3.72,6.608,7.422,13.227,11.183,19.812
		c0.591,1.035,0.634,1.841,0.021,2.896c-3.413,5.867-6.755,11.775-10.116,17.673c-0.774,1.357-1.531,2.726-2.427,4.324
		c0.885,0.039,1.453,0.084,2.022,0.086c2.655,0.008,5.314-0.081,7.965,0.037c1.421,0.063,2.187-0.361,2.771-1.701
		c2.158-4.956,4.438-9.857,6.705-14.848c0.161,0.276,0.329,0.53,0.464,0.801c2.299,4.603,4.634,9.188,6.867,13.822
		c0.649,1.349,1.404,2.019,3.01,1.933c2.701-0.146,5.415-0.032,8.123-0.043C163.609,142.429,164.165,142.36,164.874,142.313z
		 M119.731,97.518c-8.159-2.758-16.064-3.689-23.613,1.012c-5.854,3.646-7.525,10.998-4.044,16.899
		c2.034,3.449,5.437,5.237,8.985,6.779c2.523,1.097,5.051,2.201,7.489,3.471c1.51,0.786,2.239,2.237,2.145,3.978
		c-0.09,1.661-0.888,2.896-2.389,3.684c-2.814,1.476-5.802,1.252-8.721,0.674c-2.611-0.517-5.142-1.438-7.855-2.223
		c-0.601,2.471-1.272,4.981-1.771,7.525c-0.083,0.424,0.472,1.258,0.926,1.455c3.806,1.649,7.836,2.301,11.96,2.278
		c4.629-0.024,9.062-0.809,13.026-3.47c5.147-3.457,7.16-10.886,4.452-16.416c-1.856-3.791-5.154-5.806-8.764-7.477
		c-2.597-1.201-5.266-2.25-7.834-3.505c-2.104-1.028-2.994-2.657-2.695-4.4c0.295-1.722,1.753-3.273,3.894-3.447
		c2.408-0.195,4.873-0.108,7.275,0.173c1.736,0.203,3.412,0.925,5.187,1.436C118.153,103.182,118.891,100.532,119.731,97.518z
		 M66.934,133.494c0-12.567,0-24.954,0-37.322c-3.626,0-7.044,0-10.57,0c0,0.759,0,1.391,0,2.022c0,8.125,0,16.249,0,24.373
		c0,6.106,0.005,12.213-0.005,18.319c-0.001,0.85-0.026,1.563,1.192,1.559c8.868-0.03,17.735-0.024,26.603-0.008
		c0.893,0.002,1.237-0.357,1.227-1.229c-0.024-2.07-0.061-4.144,0.016-6.212c0.045-1.206-0.416-1.538-1.576-1.525
		c-4.991,0.052-9.982,0.023-14.974,0.023C68.278,133.494,67.708,133.494,66.934,133.494z"/>
	<path fill-rule="evenodd" clip-rule="evenodd" d="M303.194,216.894c-5.119,0-10.05,0-14.981,0
		c-2.844-0.001-5.337-0.984-6.768-3.447c-0.86-1.48-1.272-3.355-1.413-5.092c-0.226-2.795-0.061-5.62-0.061-8.678
		c-0.647,0-1.208,0-1.768,0c-3.772,0-7.545,0.008-11.317-0.002c-5.341-0.014-8.563-3.159-8.585-8.497
		c-0.038-9.139-0.01-18.277-0.01-27.416c0-51.484,0.001-102.969-0.001-154.453c0-2.26,0.177-4.43,1.761-6.281
		c1.507-1.761,3.377-2.685,5.635-2.906c0.632-0.062,1.274-0.033,1.911-0.033C297.563,0.087,327.53,0.154,357.495,0
		c3.655-0.019,6.068,1.196,8.276,3.903c3.553,4.354,7.338,8.521,11.077,12.721c0.354,0.397,1.125,0.723,1.628,0.638
		c4.287-0.726,7.003,1.344,9.545,4.556c3.616,4.569,7.64,8.818,11.541,13.157c0.393,0.437,1.188,0.855,1.718,0.773
		c4.306-0.673,7.026,1.361,9.711,4.557c7.677,9.138,15.69,17.993,23.563,26.966c3.954,4.507,7.878,9.039,11.84,13.538
		c1.165,1.323,1.177,2.903,1.177,4.5c0.004,19.446,0.003,38.892,0.003,58.338c0,27.575,0.001,55.15-0.003,82.726
		c-0.001,4.758-1.881,7.568-5.886,8.703c-0.852,0.242-1.78,0.297-2.674,0.297c-42.505,0.014-85.01,0.008-127.515,0.021
		c-2.892,0.001-5.393-0.864-7.019-3.312c-0.691-1.042-1.175-2.412-1.227-3.655C303.094,224.667,303.194,220.896,303.194,216.894z
		 M401.396,43.538c-30.414,0-60.575,0-90.763,0c0,60.788,0,121.486,0,182.159c43.165,0,86.222,0,129.259,0
		c0-46.121,0-92.118,0-138.272c-0.705,0-1.328,0-1.952,0c-10.521,0-21.042,0.002-31.563-0.001c-3.763-0.001-4.98-1.212-4.981-4.952
		c-0.002-12.38,0-24.761,0-37.142C401.396,44.759,401.396,44.188,401.396,43.538z M303.194,207.297c0-0.816,0-1.495,0-2.173
		c0-53.981,0.004-107.962-0.018-161.943c-0.001-1.614,0.359-3.004,1.38-4.277c1.808-2.255,4.169-3.118,6.987-3.116
		c21.624,0.016,43.248,0.008,64.873,0.008c0.623,0,1.245,0,1.926,0c0-3.678,0-7.201,0-10.728c-30.293,0-60.489,0-90.648,0
		c0,60.807,0,121.501,0,182.228C292.859,207.297,297.901,207.297,303.194,207.297z M266,7.811c0,60.82,0,121.515,0,182.171
		c4.804,0,9.496,0,14.238,0c0-0.818,0-1.508,0-2.197c0-54.406-0.01-108.812,0.057-163.218c0.002-1.373,0.579-2.918,1.347-4.082
		c1.623-2.461,4.192-3.195,7.067-3.192c22.05,0.021,44.099,0.011,66.148,0.011c0.611,0,1.223,0,1.818,0c0-3.302,0-6.362,0-9.493
		C326.434,7.811,296.275,7.811,266,7.811z"/>
	<path fill-rule="evenodd" clip-rule="evenodd" d="M221.718,140.285c-3.169,0-6.013,0-8.998,0c0-4.419,0-8.752,0-13.279
		c-4.509,0-8.882,0-13.332,0c0-3.038,0-5.882,0-8.92c4.407,0,8.779,0,13.284,0c0-4.522,0-8.854,0-13.303c3.017,0,5.9,0,8.928,0
		c0,4.353,0,8.683,0,13.202c4.51,0,8.881,0,13.369,0c0,3.067,0,5.948,0,8.961c-4.377,0-8.715,0-13.252,0
		C221.718,131.44,221.718,135.812,221.718,140.285z"/>
	<path fill-rule="evenodd" clip-rule="evenodd" d="M351.691,135.741c12.735,0,25.384,0,38.158,0
		c-0.048-3.461-0.703-6.701-1.783-9.877c-2.202-6.471-6.291-11.658-11.241-16.185c-5.21-4.765-10.641-9.289-15.859-14.044
		c-7.052-6.426-12.766-13.808-15.513-23.127c-0.762-2.585-1.253-5.251-1.917-8.087c2.869,0,5.479,0,8.136,0
		c0.607,2.292,1.106,4.675,1.87,6.97c2.51,7.534,7.411,13.428,13.187,18.653c5.551,5.021,11.31,9.815,16.769,14.931
		c5.979,5.603,10.703,12.175,12.785,20.212c4.071,15.716,1.24,30.014-9.503,42.448c-2.352,2.722-4.934,5.244-7.5,7.953
		c-2.135-1.891-4.07-3.604-6.016-5.326c3.159-3.373,6.25-6.673,9.341-9.973c-0.095-0.162-0.189-0.325-0.284-0.488
		c-0.821,0-1.643,0-2.463,0c-5.252,0.002-10.505-0.021-15.756,0.025c-1.011,0.009-1.695-0.268-2.252-1.125
		c-0.918-1.415-1.928-2.77-3.178-4.546c0.977,0,1.521,0,2.066,0c8.003,0.001,16.006-0.022,24.008,0.03
		c1.133,0.007,1.715-0.347,2.147-1.38c1.503-3.593,2.618-7.266,2.842-11.301c-12.71,0-25.3,0-38.065,0
		c0.12,3.029,0.827,5.932,1.84,8.766c2.173,6.079,5.849,11.199,10.45,15.62c5.206,5.002,10.638,9.767,15.9,14.71
		c5.848,5.493,10.937,11.576,14.216,19.004c1.834,4.153,3.023,8.473,3.542,13.119c-2.686,0-5.262,0-7.912,0
		c-0.536-2.083-0.993-4.196-1.627-6.258c-2.128-6.931-6.231-12.651-11.344-17.635c-4.522-4.408-9.271-8.584-13.942-12.84
		c-5.881-5.359-11.308-11.096-14.908-18.298c-6.89-13.78-7.139-34.602,7.183-49.831c2.21-2.35,4.443-4.679,6.714-7.069
		c2.332,1.988,4.298,3.664,6.242,5.321c-3.47,3.62-6.863,7.16-10.256,10.7c0.093,0.207,0.187,0.413,0.279,0.62
		c0.585,0,1.169,0,1.754,0c6.148-0.002,12.297,0.019,18.444-0.027c1.063-0.008,1.812,0.247,2.374,1.192
		c0.833,1.4,1.761,2.743,2.887,4.478c-0.949,0-1.499,0-2.048,0c-8.482,0.001-16.966,0.028-25.448-0.027
		c-1.202-0.009-1.783,0.342-2.216,1.474C352.438,128.077,351.469,132.781,351.691,135.741z"/>
	<path fill-rule="evenodd" clip-rule="evenodd" d="M343.747,212.829c1.613-13.761,8.798-24.02,18.575-32.929
		c2.01,1.791,3.94,3.511,5.968,5.317c-4.083,3.891-7.939,7.815-11.069,12.832c0.834,0.043,1.421,0.1,2.009,0.1
		c6.614,0.003,13.229,0.021,19.844-0.03c0.982-0.008,1.591,0.273,2.048,1.125c0.768,1.432,1.601,2.828,2.582,4.547
		c-3.036,0-5.713-0.001-8.391,0c-6.577,0.002-13.154,0.031-19.73-0.019c-1.038-0.008-1.558,0.305-1.807,1.291
		c-0.545,2.156-1.222,4.283-1.686,6.456c-0.204,0.958-0.499,1.359-1.518,1.329C348.358,212.784,346.142,212.829,343.747,212.829z"/>
	<path fill-rule="evenodd" clip-rule="evenodd" d="M373.147,91.452c4.046-3.659,7.697-7.323,10.734-11.97
		c-0.864-0.048-1.462-0.109-2.06-0.109c-6.401-0.004-12.804-0.013-19.206,0.021c-0.938,0.005-1.604-0.209-2.082-1.08
		c-0.786-1.43-1.662-2.812-2.666-4.492c0.823-0.041,1.365-0.091,1.908-0.091c8.481-0.004,16.963-0.042,25.443,0.039
		c1.443,0.014,2.12-0.453,2.454-1.784c0.452-1.798,1.184-3.544,1.451-5.364c0.239-1.63,1.173-2.225,2.521-2.307
		c1.938-0.118,3.888-0.03,5.98-0.03c-1.436,13.51-8.494,23.628-18.331,32.379C377.273,94.95,375.278,93.259,373.147,91.452z"/>
</g>
</svg>
